…
# construct API queries
sf::st_bbox(ext) |> as.numeric() |> round(4) |> paste0(collapse = ",") |> paste0("&bbox=", x = _)
#> [1] "&bbox=5.9749,50.6628,6.2169,50.8574"
```

Note: The VG250 dataset itself can be accessed via `vg250`:

``` r
vg250
#> Simple feature collection with 10978 features and 5 fields
#> Geometry type: GEOMETRY
#> Dimension:     XY
#> Bounding box:  xmin: 5.86625 ymin: 47.27012 xmax: 15.04182 ymax: 55.05878
#> Geodetic CRS:  WGS 84
#> # A tibble: 10,978 × 6
#>    GEM                 KRS         LAN      EWZ    KFL                      geom
#>  * <chr>               <chr>       <chr>  <dbl>  <dbl>        <MULTIPOLYGON [°]>
#>  1 Flensburg           Flensburg   Schl…  92667  56.7  (((9.412137 54.82382, 9.…
#>  2 Kiel                Kiel        Schl… 248873 119.   (((10.16852 54.43284, 10…
#>  3 Lübeck              Lübeck      Schl… 219044 214.   (((10.87526 53.98833, 10…
#>  4 Neumünster          Neumünster  Schl…  80185  71.7  (((9.991971 54.14988, 9.…
#>  5 Brunsbüttel         Dithmarsch… Schl…  12651  65.2  (((9.166074 53.94532, 9.…
#>  6 Heide               Dithmarsch… Schl…  22467  32.0  (((9.121658 54.20769, 9.…
#>  7 Averlak             Dithmarsch… Schl…    587   9.06 (((9.212443 53.95312, 9.…
#>  8 Brickeln            Dithmarsch… Schl…    191   6.07 (((9.255627 54.02135, 9.…
#>  9 Buchholz            Dithmarsch… Schl…    995  14.6  (((9.182763 53.99953, 9.…
#> 10 Burg (Dithmarschen) Dithmarsch… Schl…   4173  11.2  (((9.277097 54.01499, 9.…
#> # ℹ 10,968 more rows
```
